<svg width="172" height="172" viewBox="0 0 172 172" fill="none" xmlns="http://www.w3.org/2000/svg">
<path d="M86.0111 172C38.4663 171.908 -0.274878 133.201 0.00146929 85.8198C0.290975 36.191 41.3351 -0.61007 87.3929 0.0076623C110.08 0.401069 131.695 9.72318 147.538 25.9473C163.381 42.1714 172.171 63.9859 171.997 86.6481C171.824 109.31 162.701 130.988 146.612 146.968C130.522 162.949 108.768 171.94 86.0769 171.987L86.0111 172ZM167.941 86.3981C168.784 42.5917 132.214 5.02838 87.985 4.23978C42.7168 3.45119 5.26522 39.1876 4.35722 83.9929C3.44922 129.311 39.2032 166.927 83.9319 167.742C130.279 168.583 167.126 132.938 167.941 86.3981Z" fill="#EE5839"/>
<path d="M85.9202 126.313C80.3933 126.721 80.209 126.747 81.1697 132.267C81.5644 134.514 83.0383 136.565 83.8015 138.839C84.0165 139.8 84.1049 140.785 84.0647 141.77C83.183 141.494 81.9592 141.494 81.4328 140.902C79.6958 138.681 78.4193 140.534 76.9323 141.126C76.0744 141.403 75.1937 141.606 74.3005 141.73C74.4715 140.6 74.2347 138.97 74.8926 138.418C78.393 135.526 77.3929 131.689 77.314 128.087C77.314 127.509 75.998 126.707 75.1295 126.445C69.5236 124.736 63.7335 123.5 58.2723 121.424C52.8112 119.347 48.9029 114.616 45.7315 109.792C39.9778 101.243 35.9544 91.6524 33.888 81.5604C33.6623 80.8294 33.595 80.0587 33.6906 79.2997C34.0893 78.1247 34.5685 76.9785 35.125 75.8694C36.1826 76.4457 37.2063 77.082 38.1911 77.7751C38.6912 78.1563 38.9417 78.4323 39.3886 79.326C39.9744 79.7608 40.6001 80.1393 41.2573 80.4563C41.4152 79.7729 41.5994 79.142 41.7573 78.4323C41.9942 77.4465 42.2179 76.4608 42.4548 75.4751C43.4992 75.92 44.4884 76.4846 45.4025 77.1574C48.7055 80.3381 51.7979 83.8079 56.509 84.9645C62.0491 86.2788 65.431 83.6501 66.3259 78.0511C67.6418 70.0863 68.8788 62.0821 70.9317 54.2882C72.9845 46.4942 77.9324 40.3169 86.2886 38.8974C94.6448 37.478 102.975 38.4506 109.976 44.1547C113.695 46.9954 117.188 50.1197 120.424 53.4996C123.148 56.5225 126.714 57.2585 130.123 58.6386C131.853 59.2857 133.544 60.0317 135.189 60.8729C138.163 62.4633 138.373 63.0021 136.505 65.8805C134.136 69.5212 131.241 72.8333 129.109 76.5922C127.749 79.0692 126.953 81.816 126.78 84.6359C125.99 99.4483 119.227 110.922 107.252 119.229C104.37 121.24 100.672 122.212 97.3425 123.461C92.4736 125.262 91.3024 129.06 94.4606 133.397C95.4953 134.501 96.4705 135.66 97.382 136.867C97.6777 137.778 97.8026 138.736 97.7505 139.693C96.8819 139.456 95.7897 139.469 95.2107 138.931C93.9737 137.787 93.0526 135.71 92.0656 139.141C91.934 139.575 90.1838 139.548 89.1837 139.732C89.0531 138.915 89.0266 138.085 89.1048 137.261C89.5785 135.053 90.6181 132.885 90.6707 130.69C90.8023 126.353 90.2101 125.984 85.9202 126.313ZM79.8537 122.239C90.197 122.239 96.0792 120.07 104.606 114.813C109.962 111.501 114.687 107.374 117.397 101.21C120.45 94.2567 121.516 87.0148 122.201 79.5889C122.386 77.9918 123.01 76.477 124.003 75.2122C125.859 72.8201 128.307 70.8749 130.07 68.4303C133.715 63.3176 133.899 64.185 128.359 62.2135C127.409 61.9571 126.477 61.6365 125.569 61.2541C122.714 59.7689 119.095 58.8489 117.213 56.5357C110.607 48.3606 102.646 43.2084 92.1183 42.341C85.8149 41.8284 78.9589 45.2982 76.5112 50.5686C75.208 52.846 74.225 55.2917 73.5898 57.8368C72.445 64.8159 71.5633 71.8475 70.8395 78.866C70.7218 80.7173 70.1749 82.516 69.2421 84.1201C68.3093 85.7243 67.016 87.09 65.4644 88.1095C63.9127 89.1291 62.1451 89.7747 60.301 89.9952C58.4568 90.2158 56.5866 90.0054 54.8377 89.3806C53.2849 88.8812 51.7321 88.316 50.2057 87.7114C48.6792 87.1068 48.0212 86.9228 48.7581 88.9469C48.9818 89.5777 48.5344 90.4452 48.3897 91.2075C47.5796 91.1324 46.7679 91.1379 46.0604 90.5503C44.8103 89.512 43.797 88.1846 42.5995 87.0805C41.9557 86.5949 41.258 86.1847 40.5204 85.8582C40.4599 86.7011 40.4997 87.5482 40.6388 88.3817C42.968 96.3334 46.4684 103.68 52.3769 109.661C59.9436 117.297 68.734 122.304 79.8537 122.239Z" fill="#EE5839"/>
<path d="M111.734 71.3368C106.273 71.5208 102.865 68.0115 103.589 63.648C104.247 59.705 106.76 58.2724 110.458 59.705C115.577 61.7554 117.38 66.4869 114.182 69.7596C113.447 70.4015 112.623 70.9328 111.734 71.3368Z" fill="#EE5E41"/>
</svg>
